fetch_stage/test_fetch_out.vcd
$date
	Mon Nov 17 19:32:45 2025
$end
$version
	Icarus Verilog
$end
$timescale
	1ps
$end
$scope module test_fetch $end
$scope module t1 $end
$var wire 32 ! branch_target_pc [31:0] $end
$var wire 1 " btb_pc_predictTaken $end
$var wire 1 # btb_pc_preditTaken $end
$var wire 1 $ btb_pc_valid $end
$var wire 1 % clk $end
$var wire 1 & flush $end
$var wire 1 ' jump_en $end
$var wire 1 ( pc_en $end
$var wire 32 ) pc_jump_addr [31:0] $end
$var wire 1 * rst $end
$var wire 32 + pc [31:0] $end
$var wire 32 , next_pc [31:0] $end
$var wire 32 - instruction [31:0] $end
$scope module m1 $end
$var wire 1 % clk $end
$var wire 1 ( pc_en $end
$var wire 1 * rst $end
$var wire 32 . next_pc [31:0] $end
$var reg 32 / pc [31:0] $end
$upscope $end
$scope module m2 $end
$var wire 32 0 branch_target_pc [31:0] $end
$var wire 1 # btb_pc_predictTaken $end
$var wire 1 $ btb_pc_valid $end
$var wire 1 ' jump_en $end
$var wire 32 1 pc [31:0] $end
$var wire 32 2 pc_jump_addr [31:0] $end
$var wire 2 3 sel [1:0] $end
$var wire 32 4 pc_plus_four [31:0] $end
$var reg 32 5 next_pc [31:0] $end
$upscope $end
$scope module m3 $end
$var wire 1 & flush $end
$var wire 32 6 pc [31:0] $end
$var wire 1 ( pc_en $end
$var wire 1 * rst $end
$var reg 32 7 instruction [31:0] $end
$upscope $end
$upscope $end
$upscope $end
$enddefinitions $end
$comment Show the parameter values. $end
$dumpall
$end
#0
$dumpvars
b0 7
b0 6
b100 5
b100 4
b0 3
bx 2
b0 1
bx 0
b0 /
b100 .
b0 -
b100 ,
b0 +
1*
bx )
0(
0'
0&
0%
0$
z#
0"
bx !
$end
#5000
b1111001010000010100110011 -
b1111001010000010100110011 7
1(
0*
#10000
b1000 ,
b1000 .
b1000 5
b101101100000011010010011 -
b101101100000011010010011 7
b1000 4
b100 +
b100 /
b100 1
b100 6
1%
#20000
0%
#30000
b1100 ,
b1100 .
b1100 5
b10110001011000010100110011 -
b10110001011000010100110011 7
b1100 4
b1000 +
b1000 /
b1000 1
b1000 6
1%
#40000
0%
#50000
b10000 ,
b10000 .
b10000 5
b1010001100000010110010011 -
b1010001100000010110010011 7
b10000 4
b1100 +
b1100 /
b1100 1
b1100 6
1%
#60000
0%
#70000
b10100 ,
b10100 .
b10100 5
b111001111000011100110011 -
b111001111000011100110011 7
b10100 4
b10000 +
b10000 /
b10000 1
b10000 6
1%
#80000
0%
#90000
b11000 ,
b11000 .
b11000 5
b10100001111000011010110011 -
b10100001111000011010110011 7
b11000 4
b10100 +
b10100 /
b10100 1
b10100 6
1%
#100000
0%
#110000
b11100 ,
b11100 .
b11100 5
b10000000100001100111 -
b10000000100001100111 7
b11100 4
b11000 +
b11000 /
b11000 1
b11000 6
1%
#120000
0%
#130000
b100000 ,
b100000 .
b100000 5
b10010000010000000100001100111 -
b10010000010000000100001100111 7
b100000 4
b11100 +
b11100 /
b11100 1
b11100 6
1%
#140000
0%
#150000
b100100 ,
b100100 .
b100100 5
b101001001010100000100011 -
b101001001010100000100011 7
b100100 4
b100000 +
b100000 /
b100000 1
b100000 6
1%
#160000
0%
#170000
b101000 ,
b101000 .
b101000 5
b1101101111010011010100011 -
b1101101111010011010100011 7
b101000 4
b100100 +
b100100 /
b100100 1
b100100 6
1%
#180000
0%
#190000
b101100 ,
b101100 .
b101100 5
b1010000000000000011101111 -
b1010000000000000011101111 7
b101100 4
b101000 +
b101000 /
b101000 1
b101000 6
1%
#200000
0%
#210000
b110000 ,
b110000 .
b110000 5
b10111101111 -
b10111101111 7
b110000 4
b101100 +
b101100 /
b101100 1
b101100 6
1%
#220000
0%
#230000
b110100 ,
b110100 .
b110100 5
b10000000000000000001101111 -
b10000000000000000001101111 7
b110100 4
b110000 +
b110000 /
b110000 1
b110000 6
1%
#240000
0%
#250000
b111000 ,
b111000 .
b111000 5
b1011101111 -
b1011101111 7
b111000 4
b110100 +
b110100 /
b110100 1
b110100 6
1%
#260000
0%
#270000
b111100 ,
b111100 .
b111100 5
b110010000000011010010011 -
b110010000000011010010011 7
b111100 4
b111000 +
b111000 /
b111000 1
b111000 6
1%
#280000
0%
#290000
b1000000 ,
b1000000 .
b1000000 5
b101110010000100110110011 -
b101110010000100110110011 7
b1000000 4
b111100 +
b111100 /
b111100 1
b111100 6
1%
#300000
0%
#310000
b1000100 ,
b1000100 .
b1000100 5
b1000001111101110000011100110011 -
b1000001111101110000011100110011 7
b1000100 4
b1000000 +
b1000000 /
b1000000 1
b1000000 6
1%
#320000
0%
#330000
b1001000 ,
b1001000 .
b1001000 5
b1101110000000011110110011 -
b1101110000000011110110011 7
b1001000 4
b1000100 +
b1000100 /
b1000100 1
b1000100 6
1%
#340000
0%
#350000
b1001100 ,
b1001100 .
b1001100 5
b10111101111 -
b10111101111 7
b1001100 4
b1001000 +
b1001000 /
b1001000 1
b1001000 6
1%
#360000
0%
#370000
b1010000 ,
b1010000 .
b1010000 5
b1011101111 -
b1011101111 7
b1010000 4
b1001100 +
b1001100 /
b1001100 1
b1001100 6
1%
#380000
0%
#390000
b1010100 ,
b1010100 .
b1010100 5
b101010000000100001100011 -
b101010000000100001100011 7
b1010100 4
b1010000 +
b1010000 /
b1010000 1
b1010000 6
1%
#400000
0%
#410000
b1011000 ,
b1011000 .
b1011000 5
b10010001010000100000110011 -
b10010001010000100000110011 7
b1011000 4
b1010100 +
b1010100 /
b1010100 1
b1010100 6
1%
#420000
0%
#430000
b1011100 ,
b1011100 .
b1011100 5
b110001100000011010010011 -
b110001100000011010010011 7
b1011100 4
b1011000 +
b1011000 /
b1011000 1
b1011000 6
1%
#440000
0%
#450000
b1100000 ,
b1100000 .
b1100000 5
b1101010001000100001100011 -
b1101010001000100001100011 7
b1100000 4
b1011100 +
b1011100 /
b1011100 1
b1011100 6
1%
#460000
0%
#470000
b1100100 ,
b1100100 .
b1100100 5
b10010001111000100100110011 -
b10010001111000100100110011 7
b1100100 4
b1100000 +
b1100000 /
b1100000 1
b1100000 6
1%
#480000
0%
#490000
b1101000 ,
b1101000 .
b1101000 5
b101101010000010100110011 -
b101101010000010100110011 7
b1101000 4
b1100100 +
b1100100 /
b1100100 1
b1100100 6
1%
#500000
0%
#510000
b1101100 ,
b1101100 .
b1101100 5
b101101010000010110010011 -
b101101010000010110010011 7
b1101100 4
b1101000 +
b1101000 /
b1101000 1
b1101000 6
1%
#520000
0%
#530000
b1110000 ,
b1110000 .
b1110000 5
b10110001000000100000110011 -
b10110001000000100000110011 7
b1110000 4
b1101100 +
b1101100 /
b1101100 1
b1101100 6
1%
#540000
0%
#550000
b1110100 ,
b1110100 .
b1110100 5
b1111101110000010100110011 -
b1111101110000010100110011 7
b1110100 4
b1110000 +
b1110000 /
b1110000 1
b1110000 6
1%
#560000
0%
#570000
b1111000 ,
b1111000 .
b1111000 5
b1101001111000011100110011 -
b1101001111000011100110011 7
b1111000 4
b1110100 +
b1110100 /
b1110100 1
b1110100 6
1%
#580000
0%
#590000
b1111100 ,
b1111100 .
b1111100 5
b110001111000100001100011 -
b110001111000100001100011 7
b1111100 4
b1111000 +
b1111000 /
b1111000 1
b1111000 6
1%
#600000
0%
#610000
b10000000 ,
b10000000 .
b10000000 5
b1010000000000000011101111 -
b1010000000000000011101111 7
b10000000 4
b1111100 +
b1111100 /
b1111100 1
b1111100 6
1%
#620000
0%
#630000
b10000100 ,
b10000100 .
b10000100 5
b110001010000010100110011 -
b110001010000010100110011 7
b10000100 4
b10000000 +
b10000000 /
b10000000 1
b10000000 6
1%
#640000
0%
#650000
b10001000 ,
b10001000 .
b10001000 5
b1000001010000010100110011 -
b1000001010000010100110011 7
b10001000 4
b10000100 +
b10000100 /
b10000100 1
b10000100 6
1%
#660000
0%
#670000
b10001100 ,
b10001100 .
b10001100 5
b1100001010000010100110011 -
b1100001010000010100110011 7
b10001100 4
b10001000 +
b10001000 /
b10001000 1
b10001000 6
1%
#680000
0%
#690000
b10010000 ,
b10010000 .
b10010000 5
b111110000000100010010011 -
b111110000000100010010011 7
b10010000 4
b10001100 +
b10001100 /
b10001100 1
b10001100 6
1%
#700000
0%
#710000
b10010100 ,
b10010100 .
b10010100 5
b10001101100000100001100011 -
b10001101100000100001100011 7
b10010100 4
b10010000 +
b10010000 /
b10010000 1
b10010000 6
1%
#720000
0%
#730000
b10011000 ,
b10011000 .
b10011000 5
b11011101001100100101100011 -
b11011101001100100101100011 7
b10011000 4
b10010100 +
b10010100 /
b10010100 1
b10010100 6
1%
#740000
0%
#750000
b10011100 ,
b10011100 .
b10011100 5
b1110000000000000001101111 -
b1110000000000000001101111 7
b10011100 4
b10011000 +
b10011000 /
b10011000 1
b10011000 6
1%
#760000
0%
#770000
b10100000 ,
b10100000 .
b10100000 5
b1111101111 -
b1111101111 7
b10100000 4
b10011100 +
b10011100 /
b10011100 1
b10011100 6
1%
#780000
0%
#790000
b10100100 ,
b10100100 .
b10100100 5
b11111101111 -
b11111101111 7
b10100100 4
b10100000 +
b10100000 /
b10100000 1
b10100000 6
1%
#800000
0%
#810000
b10101000 ,
b10101000 .
b10101000 5
b11011101111 -
b11011101111 7
b10101000 4
b10100100 +
b10100100 /
b10100100 1
b10100100 6
1%
#820000
0%
#830000
b10101100 ,
b10101100 .
b10101100 5
b10111101111 -
b10111101111 7
b10101100 4
b10101000 +
b10101000 /
b10101000 1
b10101000 6
1%
#840000
0%
#850000
b10110000 ,
b10110000 .
b10110000 5
b111101111 -
b111101111 7
b10110000 4
b10101100 +
b10101100 /
b10101100 1
b10101100 6
1%
#860000
0%
#870000
b10110100 ,
b10110100 .
b10110100 5
b1011101111 -
b1011101111 7
b10110100 4
b10110000 +
b10110000 /
b10110000 1
b10110000 6
1%
#880000
0%
#890000
b10111000 ,
b10111000 .
b10111000 5
b10011101111 -
b10011101111 7
b10111000 4
b10110100 +
b10110100 /
b10110100 1
b10110100 6
1%
#900000
0%
#910000
b10111100 ,
b10111100 .
b10111100 5
b10101001100000011000010011 -
b10101001100000011000010011 7
b10111100 4
b10111000 +
b10111000 /
b10111000 1
b10111000 6
1%
#920000
0%
#930000
b11000000 ,
b11000000 .
b11000000 5
b100010000000100110010011 -
b100010000000100110010011 7
b11000000 4
b10111100 +
b10111100 /
b10111100 1
b10111100 6
1%
#940000
0%
#950000
b11000100 ,
b11000100 .
b11000100 5
b110010011000100001100011 -
b110010011000100001100011 7
b11000100 4
b11000000 +
b11000000 /
b11000000 1
b11000000 6
1%
#960000
0%
#970000
b11001000 ,
b11001000 .
b11001000 5
b11010000100010000000100011 -
b11010000100010000000100011 7
b11001000 4
b11000100 +
b11000100 /
b11000100 1
b11000100 6
1%
#980000
0%
#990000
b11001100 ,
b11001100 .
b11001100 5
b100100000000100110010011 -
b100100000000100110010011 7
b11001100 4
b11001000 +
b11001000 /
b11001000 1
b11001000 6
1%
#1000000
0%
#1010000
b11010000 ,
b11010000 .
b11010000 5
b101001010010011110010011 -
b101001010010011110010011 7
b11010000 4
b11001100 +
b11001100 /
b11001100 1
b11001100 6
1%
#1020000
0%
#1030000
b11010100 ,
b11010100 .
b11010100 5
b10110001001000010101100011 -
b10110001001000010101100011 7
b11010100 4
b11010000 +
b11010000 /
b11010000 1
b11010000 6
1%
#1040000
0%
#1050000
b11011000 ,
b11011000 .
b11011000 5
b1111001000010000000100011 -
b1111001000010000000100011 7
b11011000 4
b11010100 +
b11010100 /
b11010100 1
b11010100 6
1%
#1060000
0%
#1070000
b11011100 ,
b11011100 .
b11011100 5
b10000001111000011010010011 -
b10000001111000011010010011 7
b11011100 4
b11011000 +
b11011000 /
b11011000 1
b11011000 6
1%
#1080000
0%
#1090000
b11100000 ,
b11100000 .
b11100000 5
b1000010001000011100110011 -
b1000010001000011100110011 7
b11100000 4
b11011100 +
b11011100 /
b11011100 1
b11011100 6
1%
#1100000
0%
#1110000
b11100100 ,
b11100100 .
b11100100 5
b1000010010000100110010011 -
b1000010010000100110010011 7
b11100100 4
b11100000 +
b11100000 /
b11100000 1
b11100000 6
1%
#1120000
0%
#1130000
b11101000 ,
b11101000 .
b11101000 5
b1010010000000100110010011 -
b1010010000000100110010011 7
b11101000 4
b11100100 +
b11100100 /
b11100100 1
b11100100 6
1%
#1140000
0%
#1150000
b11101100 ,
b11101100 .
b11101100 5
b1100010000000100110010011 -
b1100010000000100110010011 7
b11101100 4
b11101000 +
b11101000 /
b11101000 1
b11101000 6
1%
#1160000
0%
#1170000
b11110000 ,
b11110000 .
b11110000 5
b1110010000000100110010011 -
b1110010000000100110010011 7
b11110000 4
b11101100 +
b11101100 /
b11101100 1
b11101100 6
1%
#1180000
0%
#1190000
b11110100 ,
b11110100 .
b11110100 5
b10000010000000100110010011 -
b10000010000000100110010011 7
b11110100 4
b11110000 +
b11110000 /
b11110000 1
b11110000 6
1%
#1200000
0%
#1210000
b11111000 ,
b11111000 .
b11111000 5
b10010010000000100110010011 -
b10010010000000100110010011 7
b11111000 4
b11110100 +
b11110100 /
b11110100 1
b11110100 6
1%
#1220000
0%
#1230000
b11111100 ,
b11111100 .
b11111100 5
b10100010000000100110010011 -
b10100010000000100110010011 7
b11111100 4
b11111000 +
b11111000 /
b11111000 1
b11111000 6
1%
#1240000
0%
#1250000
b100000000 ,
b100000000 .
b100000000 5
b10110010000000100110010011 -
b10110010000000100110010011 7
b100000000 4
b11111100 +
b11111100 /
b11111100 1
b11111100 6
1%
#1260000
0%
#1270000
b100000100 ,
b100000100 .
b100000100 5
b11000010000000100110010011 -
b11000010000000100110010011 7
b100000100 4
b100000000 +
b100000000 /
b100000000 1
b100000000 6
1%
#1280000
0%
#1290000
b100001000 ,
b100001000 .
b100001000 5
b11010010000000100110010011 -
b11010010000000100110010011 7
b100001000 4
b100000100 +
b100000100 /
b100000100 1
b100000100 6
1%
#1300000
0%
#1310000
b100001100 ,
b100001100 .
b100001100 5
b11100010000000100110010011 -
b11100010000000100110010011 7
b100001100 4
b100001000 +
b100001000 /
b100001000 1
b100001000 6
1%
#1320000
0%
#1330000
b100010000 ,
b100010000 .
b100010000 5
b11110010000000100110010011 -
b11110010000000100110010011 7
b100010000 4
b100001100 +
b100001100 /
b100001100 1
b100001100 6
1%
#1340000
0%
#1350000
b100010100 ,
b100010100 .
b100010100 5
b1000001111001010000010100110011 -
b1000001111001010000010100110011 7
b100010100 4
b100010000 +
b100010000 /
b100010000 1
b100010000 6
1%
#1360000
0%
#1370000
b100011000 ,
b100011000 .
b100011000 5
b101001111000011110010011 -
b101001111000011110010011 7
b100011000 4
b100010100 +
b100010100 /
b100010100 1
b100010100 6
1%
#1380000
0%
#1390000
b100011100 ,
b100011100 .
b100011100 5
b1111101110000011110110011 -
b1111101110000011110110011 7
b100011100 4
b100011000 +
b100011000 /
b100011000 1
b100011000 6
1%
#1400000
0%
#1410000
b100100000 ,
b100100000 .
b100100000 5
b1000111100000000011111100111 -
b1000111100000000011111100111 7
b100100000 4
b100011100 +
b100011100 /
b100011100 1
b100011100 6
1%
#1420000
0%
#1430000
b100100100 ,
b100100100 .
b100100100 5
b11110000000010010010011 -
b11110000000010010010011 7
b100100100 4
b100100000 +
b100100000 /
b100100000 1
b100100000 6
1%
#1440000
0%
#1450000
b100101000 ,
b100101000 .
b100101000 5
b1111001000000011110010011 -
b1111001000000011110010011 7
b100101000 4
b100100100 +
b100100100 /
b100100100 1
b100100100 6
1%
#1460000
0%
#1470000
b100101100 ,
b100101100 .
b100101100 5
b10110101110000011100110011 -
b10110101110000011100110011 7
b100101100 4
b100101000 +
b100101000 /
b100101000 1
b100101000 6
1%
#1480000
0%
#1490000
b100110000 ,
b100110000 .
b100110000 5
b110001111000011101100011 -
b110001111000011101100011 7
b100110000 4
b100101100 +
b100101100 /
b100101100 1
b100101100 6
1%
#1500000
0%
#1510000
b100110100 ,
b100110100 .
b100110100 5
b101100000000000001101111 -
b101100000000000001101111 7
b100110100 4
b100110000 +
b100110000 /
b100110000 1
b100110000 6
1%
#1520000
0%
#1530000
b100111000 ,
b100111000 .
b100111000 5
b1000000000000000001101111 -
b1000000000000000001101111 7
b100111000 4
b100110100 +
b100110100 /
b100110100 1
b100110100 6
1%
#1540000
0%
#1550000
b100111100 ,
b100111100 .
b100111100 5
b10000000000000000001101111 -
b10000000000000000001101111 7
b100111100 4
b100111000 +
b100111000 /
b100111000 1
b100111000 6
1%
#1560000
0%
#1570000
b101000000 ,
b101000000 .
b101000000 5
b11000000000000000001101111 -
b11000000000000000001101111 7
b101000000 4
b100111100 +
b100111100 /
b100111100 1
b100111100 6
1%
#1580000
0%
#1590000
b101000100 ,
b101000100 .
b101000100 5
b100000000000000000001101111 -
b100000000000000000001101111 7
b101000100 4
b101000000 +
b101000000 /
b101000000 1
b101000000 6
1%
#1600000
0%
#1610000
b101001000 ,
b101001000 .
b101001000 5
b110110111 -
b110110111 7
b101001000 4
b101000100 +
b101000100 /
b101000100 1
b101000100 6
1%
#1620000
0%
#1630000
b101001100 ,
b101001100 .
b101001100 5
b1010110111 -
b1010110111 7
b101001100 4
b101001000 +
b101001000 /
b101001000 1
b101001000 6
1%
#1640000
0%
#1650000
b101010000 ,
b101010000 .
b101010000 5
b1110110111 -
b1110110111 7
b101010000 4
b101001100 +
b101001100 /
b101001100 1
b101001100 6
1%
#1660000
0%
#1670000
b101010100 ,
b101010100 .
b101010100 5
b10010110111 -
b10010110111 7
b101010100 4
b101010000 +
b101010000 /
b101010000 1
b101010000 6
1%
#1680000
0%
#1690000
b101011000 ,
b101011000 .
b101011000 5
b10110110111 -
b10110110111 7
b101011000 4
b101010100 +
b101010100 /
b101010100 1
b101010100 6
1%
#1700000
0%
#1710000
b101011100 ,
b101011100 .
b101011100 5
b101010001000100001100011 -
b101010001000100001100011 7
b101011100 4
b101011000 +
b101011000 /
b101011000 1
b101011000 6
1%
#1720000
0%
#1730000
b101100000 ,
b101100000 .
b101100000 5
b101110001000100101100011 -
b101110001000100101100011 7
b101100000 4
b101011100 +
b101011100 /
b101011100 1
b101011100 6
1%
#1740000
0%
#1750000
b101100100 ,
b101100100 .
b101100100 5
b110010010010000000100011 -
b110010010010000000100011 7
b101100100 4
b101100000 +
b101100000 /
b101100000 1
b101100000 6
1%
#1760000
0%
#1770000
b101101000 ,
b101101000 .
b101101000 5
b110110100010000000100011 -
b110110100010000000100011 7
b101101000 4
b101100100 +
b101100100 /
b101100100 1
b101100100 6
1%
#1780000
0%
#1790000
b101101100 ,
b101101100 .
b101101100 5
b10001010000010110010011 -
b10001010000010110010011 7
b101101100 4
b101101000 +
b101101000 /
b101101000 1
b101101000 6
1%
#1800000
0%
#1810000
b101110000 ,
b101110000 .
b101110000 5
b111001010000010110110011 -
b111001010000010110110011 7
b101110000 4
b101101100 +
b101101100 /
b101101100 1
b101101100 6
1%
#1820000
0%
#1830000
b101110100 ,
b101110100 .
b101110100 5
b1101001100000011000010011 -
b1101001100000011000010011 7
b101110100 4
b101110000 +
b101110000 /
b101110000 1
b101110000 6
1%
#1840000
0%
#1850000
b101111000 ,
b101111000 .
b101111000 5
b10011001100000011000010011 -
b10011001100000011000010011 7
b101111000 4
b101110100 +
b101110100 /
b101110100 1
b101110100 6
1%
#1860000
0%
#1870000
b101111100 ,
b101111100 .
b101111100 5
b11001001100000011000010011 -
b11001001100000011000010011 7
b101111100 4
b101111000 +
b101111000 /
b101111000 1
b101111000 6
1%
#1880000
0%
#1890000
b110000000 ,
b110000000 .
b110000000 5
b11111001100000011000010011 -
b11111001100000011000010011 7
b110000000 4
b101111100 +
b101111100 /
b101111100 1
b101111100 6
1%
#1900000
0%
#1910000
b110000100 ,
b110000100 .
b110000100 5
b1101111 -
b1101111 7
b110000100 4
b110000000 +
b110000000 /
b110000000 1
b110000000 6
1%
#1920000
0%
#1930000
b110001000 ,
b110001000 .
b110001000 5
b10010111 -
b10010111 7
b110001000 4
b110000100 +
b110000100 /
b110000100 1
b110000100 6
1%
#1940000
0%
#1950000
b110001100 ,
b110001100 .
b110001100 5
b10011 -
b10011 7
b110001100 4
b110001000 +
b110001000 /
b110001000 1
b110001000 6
1%
#1960000
0%
#1970000
b110010000 ,
b110010000 .
b110010000 5
b1100111 -
b1100111 7
b110010000 4
b110001100 +
b110001100 /
b110001100 1
b110001100 6
1%
#1980000
0%
#1990000
b110010100 ,
b110010100 .
b110010100 5
b1110011 -
b1110011 7
b110010100 4
b110010000 +
b110010000 /
b110010000 1
b110010000 6
1%
#2000000
0%
#2010000
b110011000 ,
b110011000 .
b110011000 5
b10110011 -
b10110011 7
b110011000 4
b110010100 +
b110010100 /
b110010100 1
b110010100 6
1%
#2020000
0%
#2030000
b110011100 ,
b110011100 .
b110011100 5
bx -
bx 7
b110011100 4
b110011000 +
b110011000 /
b110011000 1
b110011000 6
1%
#2040000
0%
#2050000
b110100000 ,
b110100000 .
b110100000 5
b110100000 4
b110011100 +
b110011100 /
b110011100 1
b110011100 6
1%
#2060000
0%
#2070000
b110100100 ,
b110100100 .
b110100100 5
b110100100 4
b110100000 +
b110100000 /
b110100000 1
b110100000 6
1%
#2080000
0%
#2090000
b110101000 ,
b110101000 .
b110101000 5
b110101000 4
b110100100 +
b110100100 /
b110100100 1
b110100100 6
1%
#2100000
0%
#2110000
b110101100 ,
b110101100 .
b110101100 5
b110101100 4
b110101000 +
b110101000 /
b110101000 1
b110101000 6
1%
#2120000
0%
#2130000
b110110000 ,
b110110000 .
b110110000 5
b110110000 4
b110101100 +
b110101100 /
b110101100 1
b110101100 6
1%
#2140000
0%
#2150000
b110110100 ,
b110110100 .
b110110100 5
b110110100 4
b110110000 +
b110110000 /
b110110000 1
b110110000 6
1%
#2160000
0%
#2170000
b110111000 ,
b110111000 .
b110111000 5
b110111000 4
b110110100 +
b110110100 /
b110110100 1
b110110100 6
1%
#2180000
0%
#2190000
b110111100 ,
b110111100 .
b110111100 5
b110111100 4
b110111000 +
b110111000 /
b110111000 1
b110111000 6
1%
#2200000
0%
#2210000
b111000000 ,
b111000000 .
b111000000 5
b111000000 4
b110111100 +
b110111100 /
b110111100 1
b110111100 6
1%
#2220000
0%
#2230000
b111000100 ,
b111000100 .
b111000100 5
b111000100 4
b111000000 +
b111000000 /
b111000000 1
b111000000 6
1%
#2240000
0%
#2250000
b111001000 ,
b111001000 .
b111001000 5
b111001000 4
b111000100 +
b111000100 /
b111000100 1
b111000100 6
1%
#2260000
0%
#2270000
b111001100 ,
b111001100 .
b111001100 5
b111001100 4
b111001000 +
b111001000 /
b111001000 1
b111001000 6
1%
#2280000
0%
#2290000
b111010000 ,
b111010000 .
b111010000 5
b111010000 4
b111001100 +
b111001100 /
b111001100 1
b111001100 6
1%
#2300000
0%
#2310000
b111010100 ,
b111010100 .
b111010100 5
b111010100 4
b111010000 +
b111010000 /
b111010000 1
b111010000 6
1%
#2320000
0%
#2330000
b111011000 ,
b111011000 .
b111011000 5
b111011000 4
b111010100 +
b111010100 /
b111010100 1
b111010100 6
1%
#2340000
0%
#2350000
b111011100 ,
b111011100 .
b111011100 5
b111011100 4
b111011000 +
b111011000 /
b111011000 1
b111011000 6
1%
#2360000
0%
#2370000
b111100000 ,
b111100000 .
b111100000 5
b111100000 4
b111011100 +
b111011100 /
b111011100 1
b111011100 6
1%
#2380000
0%
#2390000
b111100100 ,
b111100100 .
b111100100 5
b111100100 4
b111100000 +
b111100000 /
b111100000 1
b111100000 6
1%
#2400000
0%
#2410000
b111101000 ,
b111101000 .
b111101000 5
b111101000 4
b111100100 +
b111100100 /
b111100100 1
b111100100 6
1%
#2420000
0%
#2430000
b111101100 ,
b111101100 .
b111101100 5
b111101100 4
b111101000 +
b111101000 /
b111101000 1
b111101000 6
1%
#2440000
0%
#2450000
b111110000 ,
b111110000 .
b111110000 5
b111110000 4
b111101100 +
b111101100 /
b111101100 1
b111101100 6
1%
#2460000
0%
#2470000
b111110100 ,
b111110100 .
b111110100 5
b111110100 4
b111110000 +
b111110000 /
b111110000 1
b111110000 6
1%
#2480000
0%
#2490000
b111111000 ,
b111111000 .
b111111000 5
b111111000 4
b111110100 +
b111110100 /
b111110100 1
b111110100 6
1%
#2500000
0%
#2510000
b111111100 ,
b111111100 .
b111111100 5
b111111100 4
b111111000 +
b111111000 /
b111111000 1
b111111000 6
1%
#2520000
0%
#2530000
b1000000000 ,
b1000000000 .
b1000000000 5
b1000000000 4
b111111100 +
b111111100 /
b111111100 1
b111111100 6
1%
#2540000
0%
#2550000
b1000000100 ,
b1000000100 .
b1000000100 5
b1000000100 4
b1000000000 +
b1000000000 /
b1000000000 1
b1000000000 6
1%
#2560000
0%
#2570000
b1000001000 ,
b1000001000 .
b1000001000 5
b1000001000 4
b1000000100 +
b1000000100 /
b1000000100 1
b1000000100 6
1%
#2580000
0%
#2590000
b1000001100 ,
b1000001100 .
b1000001100 5
b1000001100 4
b1000001000 +
b1000001000 /
b1000001000 1
b1000001000 6
1%
#2600000
0%
#2610000
b1000010000 ,
b1000010000 .
b1000010000 5
b1000010000 4
b1000001100 +
b1000001100 /
b1000001100 1
b1000001100 6
1%
#2620000
0%
#2630000
b1000010100 ,
b1000010100 .
b1000010100 5
b1000010100 4
b1000010000 +
b1000010000 /
b1000010000 1
b1000010000 6
1%
#2640000
0%
#2650000
b1000011000 ,
b1000011000 .
b1000011000 5
b1000011000 4
b1000010100 +
b1000010100 /
b1000010100 1
b1000010100 6
1%
#2660000
0%
#2670000
b1000011100 ,
b1000011100 .
b1000011100 5
b1000011100 4
b1000011000 +
b1000011000 /
b1000011000 1
b1000011000 6
1%
#2680000
0%
#2690000
b1000100000 ,
b1000100000 .
b1000100000 5
b1000100000 4
b1000011100 +
b1000011100 /
b1000011100 1
b1000011100 6
1%
#2700000
0%
#2710000
b1000100100 ,
b1000100100 .
b1000100100 5
b1000100100 4
b1000100000 +
b1000100000 /
b1000100000 1
b1000100000 6
1%
#2720000
0%
#2730000
b1000101000 ,
b1000101000 .
b1000101000 5
b1000101000 4
b1000100100 +
b1000100100 /
b1000100100 1
b1000100100 6
1%
#2740000
0%
#2750000
b1000101100 ,
b1000101100 .
b1000101100 5
b1000101100 4
b1000101000 +
b1000101000 /
b1000101000 1
b1000101000 6
1%
#2760000
0%
#2770000
b1000110000 ,
b1000110000 .
b1000110000 5
b1000110000 4
b1000101100 +
b1000101100 /
b1000101100 1
b1000101100 6
1%
#2780000
0%
#2790000
b1000110100 ,
b1000110100 .
b1000110100 5
b1000110100 4
b1000110000 +
b1000110000 /
b1000110000 1
b1000110000 6
1%
#2800000
0%
#2810000
b1000111000 ,
b1000111000 .
b1000111000 5
b1000111000 4
b1000110100 +
b1000110100 /
b1000110100 1
b1000110100 6
1%
#2820000
0%
#2830000
b1000111100 ,
b1000111100 .
b1000111100 5
b1000111100 4
b1000111000 +
b1000111000 /
b1000111000 1
b1000111000 6
1%
#2840000
0%
#2850000
b1001000000 ,
b1001000000 .
b1001000000 5
b1001000000 4
b1000111100 +
b1000111100 /
b1000111100 1
b1000111100 6
1%
#2860000
0%
#2870000
b1001000100 ,
b1001000100 .
b1001000100 5
b1001000100 4
b1001000000 +
b1001000000 /
b1001000000 1
b1001000000 6
1%
#2880000
0%
#2890000
b1001001000 ,
b1001001000 .
b1001001000 5
b1001001000 4
b1001000100 +
b1001000100 /
b1001000100 1
b1001000100 6
1%
#2900000
0%
#2910000
b1001001100 ,
b1001001100 .
b1001001100 5
b1001001100 4
b1001001000 +
b1001001000 /
b1001001000 1
b1001001000 6
1%
#2920000
0%
#2930000
b1001010000 ,
b1001010000 .
b1001010000 5
b1001010000 4
b1001001100 +
b1001001100 /
b1001001100 1
b1001001100 6
1%
#2940000
0%
#2950000
b1001010100 ,
b1001010100 .
b1001010100 5
b1001010100 4
b1001010000 +
b1001010000 /
b1001010000 1
b1001010000 6
1%
#2960000
0%
#2970000
b1001011000 ,
b1001011000 .
b1001011000 5
b1001011000 4
b1001010100 +
b1001010100 /
b1001010100 1
b1001010100 6
1%
#2980000
0%
#2990000
b1001011100 ,
b1001011100 .
b1001011100 5
b1001011100 4
b1001011000 +
b1001011000 /
b1001011000 1
b1001011000 6
1%
#3000000
0%
#3010000
b1001100000 ,
b1001100000 .
b1001100000 5
b1001100000 4
b1001011100 +
b1001011100 /
b1001011100 1
b1001011100 6
1%
#3020000
0%
#3030000
b1001100100 ,
b1001100100 .
b1001100100 5
b1001100100 4
b1001100000 +
b1001100000 /
b1001100000 1
b1001100000 6
1%
#3040000
0%
#3050000
b1001101000 ,
b1001101000 .
b1001101000 5
b1001101000 4
b1001100100 +
b1001100100 /
b1001100100 1
b1001100100 6
1%
#3060000
0%
#3070000
b1001101100 ,
b1001101100 .
b1001101100 5
b1001101100 4
b1001101000 +
b1001101000 /
b1001101000 1
b1001101000 6
1%
#3080000
0%
#3090000
b1001110000 ,
b1001110000 .
b1001110000 5
b1001110000 4
b1001101100 +
b1001101100 /
b1001101100 1
b1001101100 6
1%
#3100000
0%
#3110000
b1001110100 ,
b1001110100 .
b1001110100 5
b1001110100 4
b1001110000 +
b1001110000 /
b1001110000 1
b1001110000 6
1%
#3120000
0%
#3130000
b1001111000 ,
b1001111000 .
b1001111000 5
b1001111000 4
b1001110100 +
b1001110100 /
b1001110100 1
b1001110100 6
1%
#3140000
0%
#3150000
b1001111100 ,
b1001111100 .
b1001111100 5
b1001111100 4
b1001111000 +
b1001111000 /
b1001111000 1
b1001111000 6
1%
#3160000
0%
#3170000
b1010000000 ,
b1010000000 .
b1010000000 5
b1010000000 4
b1001111100 +
b1001111100 /
b1001111100 1
b1001111100 6
1%
#3180000
0%
